{
  "project_info": {
    "project_number": "1035248354385",
    "firebase_url": "https://usa-coins-315d2.firebaseio.com",
    "project_id": "usa-coins-315d2",
    "storage_bucket": "usa-coins-315d2.appspot.com"
  },
  "client": [
    {
      "client_info": {
        "mobilesdk_app_id": "1:1035248354385:android:a47fa2afb30f4415",
        "android_client_info": {
          "package_name": "kamar.zygote.usacoins"
        }
      },
      "oauth_client": [
        {
          "client_id": "1035248354385-716fg07njv1j6pr39uuuvh0lnkhlh175.apps.googleusercontent.com",
          "client_type": 1,
          "android_info": {
            "package_name": "kamar.zygote.usacoins",
            "certificate_hash": "a1aedd544ce86a008b31e0544178795008c6063e"
          }
        },
        {
          "client_id": "1035248354385-sdfu4ms3s0emf4i83u8hbhudmte6hm9e.apps.googleusercontent.com",
          "client_type": 3
        }
      ],
      "api_key": [
        {
          "current_key": "AIzaSyA8LkB4rmGW7p8Qm3Cgr-1HKHWcY9jNHEU"
        }
      ],
      "services": {
        "analytics_service": {
          "status": 1
        },
        "appinvite_service": {
          "status": 2,
          "other_platform_oauth_client": [
            {
              "client_id": "1035248354385-sdfu4ms3s0emf4i83u8hbhudmte6hm9e.apps.googleusercontent.com",
              "client_type": 3
            }
          ]
        },
        "ads_service": {
          "status": 2
        }
      }
    }
  ],
  "configuration_version": "1"
}